Source Target SourceGene TargetGene Weight 
0 1 PSEN1 PSEN2 0.7
0 0 PSEN1 PSEN1 0.7
0 27 PSEN1 APP 0.7
0 2 PSEN1 APOE 0.7
0 19 PSEN1 APH1B 0.7
0 4 PSEN1 TREM2 0.7
0 3 PSEN1 MAPT 0.7
0 18 PSEN1 ADAM10 0.2
1 1 PSEN2 PSEN2 0.2
1 27 PSEN2 APP 0.7
1 19 PSEN2 APH1B 0.7
2 27 APOE APP 0.7
2 2 APOE APOE 0.7
2 4 APOE TREM2 0.7
2 16 APOE SORL1 0.7
2 3 APOE MAPT 0.7
2 5 APOE AGRN 0.2
3 3 MAPT MAPT 0.7
3 13 MAPT CLU 0.2
3 8 MAPT BIN1 0.7
3 27 MAPT APP 0.7
4 13 TREM2 CLU 0.2
4 27 TREM2 APP 0.7
5 20 AGRN GRN 0.2
5 27 AGRN APP 0.7
5 5 AGRN AGRN 0.2
7 7 NCK2 NCK2 0.7
7 21 NCK2 ABI3 0.7
8 8 BIN1 BIN1 0.7
8 27 BIN1 APP 0.2
8 13 BIN1 CLU 0.2
8 17 BIN1 RIN3 0.7
10 10 TNIP1 TNIP1 0.7
11 11 HAVCR2 HAVCR2 0.2
11 27 HAVCR2 APP 0.2
12 12 CD2AP CD2AP 0.7
12 14 CD2AP CCDC6 0.2
13 13 CLU CLU 0.7
13 27 CLU APP 0.7
14 14 CCDC6 CCDC6 0.7
16 16 SORL1 SORL1 0.2
16 27 SORL1 APP 0.7
18 27 ADAM10 APP 0.2
21 21 ABI3 ABI3 0.7
25 27 LILRB2 APP 0.7
27 27 APP APP 0.7
